
  ****************************************************************************
  FTSC                                   FIDONET TECHNICAL STANDARDS COMMITTEE
  ****************************************************************************

  Publication:    FTA-1005
  Title:          FTSC Product ID List
  Revision Date:  07 April 1997
  Expiry Date:    01 May 1999
  ----------------------------------------------------------------------------
  Contents:
                  A.  Format
                  B.  8-bit product codes
                  C.  16-bit product codes
  ----------------------------------------------------------------------------

  A.  Format
  ----------

  code,name,os,type,contact,netaddr[,date assigned[,last update]]

  Product codes are in 4 digit hexadecimal notation
  Date format is YYYYMMDD, may be blank

  If you write software which is dependant on this format, please make
  it tolerant of additional fields after these for upwards compatibility

  Codes have been increased to 16-bit (4 digit hexadecimal) values
  New entries & update products after 31st May 1993 add:
  both fields in "YYMMDD" format

  B.  8-bit product codes
  -----------------------

0000,Fido,MS-DOS,Packer/mailer,Tom_Jennings,1:125/111
0001,Rover,MS-DOS,Packer/mailer,Bob_Hartman,1:104/501
0002,SEAdog,MS-DOS,Packer/mailer,Thom_Henderson,1:107/542.1
0003,WinDog,MS-DOS,Mailer,Solar_Wind_Computing,1:115/333
0004,Slick-150,HP-150,Packer/mailer,Jerry_Bain,????
0005,Opus,MS-DOS,Packer/mailer,Doug_Boone,1:124/4227
0006,Dutchie,MS-DOS,Packer/mailer,Henk_Wevers,2:500/1
0007,WPL_Library,Amiga,Mailer,Russell_McOrmand,1:163/109
0008,Tabby,Macintosh,Packer/mailer,Michael_Connick,1:107/412
0009,SWMail,OS/2,Mailer,Solar_Wind_Computing,1:115/333
000A,Wolf-68k,CPM-68k,Packer/mailer,Robert_Heller,1:321/153
000B,QMM,QNX,Packer/mailer,Rick_Duff,1:167/201
000C,FrontDoor,MS-DOS,Packer/mailer,Joaquim_Homrighausen,2:270/17
000D,GOmail,MS-DOS,Packer,Scott_Green,????
000E,FFGate,MS-DOS,Packer,Ruedi_Kneubuehler,2:301/580
000F,FileMgr,MS-DOS,Packer,Erik_van_Emmerik,2:281/611
0010,FIDZERCP,MS-DOS,Packer,Thorsten_Seidel,2:242/55
0011,MailMan,MS-DOS,Packer,Ron_Bemis,1:124/1113
0012,OOPS,MS-DOS,Packer,Tom_Kashuba,1:322/379
0013,GS-Point,Atari_ST,Packer/mailer,Harry_Lee,1:124/4230
0014,BGMail,????,????,Ray_Gwinn,1:265/104
0015,ComMotion/2,OS/2,Packer/mailer,Michael_Buenter,2:301/602
0016,OurBBS_Fidomailer,MS-DOS/Unix/Coherent,Packer/mailer,Brian_Keahl,1:133/524
0017,FidoPcb,MS-DOS,Packer,Matjaz_Koce,2:380/100
0018,WimpLink,Archimedes,Packer/mailer,Remco_de_Vreugd,2:283/307
0019,BinkScan,MS-DOS,Packer,Shawn_Stoddard,1:362/101
001A,D'Bridge,MS-DOS,Packer/mailer,Chris_Irwin,1:18/68
001B,BinkleyTerm,MS-DOS,Mailer,Vince_Perriello,1:343/491
001C,Yankee,MS-DOS,Packer,Randy_Edwards,????
001D,uuGate,MS-DOS,Packer,Geoff_Watts,3:690/710
001E,Daisy,Apple_][,Packer/mailer,Raymond_&_Ken_Lo,3:700/1
001F,Polar_Bear,????,Packer/mailer,Kenneth_McLeod,1:101/190
0020,The-Box,MS-DOS/Atari_ST,Packer/mailer,Jac_Kersing/Arjen_Lentz,2:283/333
0021,STARgate/2,OS/2,Packer/mailer,Shawn_Stoddard,1:362/101
0022,TMail,MS-DOS,Packer,Larry_Lewis,3:713/600.1701
0023,TCOMMail,MS-DOS,Packer/mailer,Mike_Ratledge,1:372/888
0024,GIGO,MS-DOS,Packer,Jason_Fesler,1:203/7707,,940228
0025,RBBSMail,MS-DOS,Packer,Jan_Terpstra,2:512/10
0026,Apple-Netmail,Apple_][,Packer/mailer,Bill_Fenner,1:129/87
0027,Chameleon,Amiga,Mailer,Juergen_Hermann,2:241/2.12
0028,Majik_Board,MS-DOS,Packer/mailer,Dale_Barnes,1:3601/14.20
0029,QM,MS-DOS,Packer,George_Peace,1:270/101
002A,Point_And_Click,Amiga,Packer,Rob_Tillotson,1:201/40.302
002B,Aurora_Three_Bundler,MS-DOS,Packer,Oliver_McDonald,????
002C,FourDog,MS-DOS,Packer,Shay_Walters,1:376/12
002D,MSG-PACK,MS-DOS,Packer,Tom_Hendricks,1:261/662
002E,AMAX,MS-DOS,Packer,Alan_Applegate,1:104/36
002F,Domain_Communication_System,????,????,Hal_Duprie,1:101/106
0030,LesRobot,????,Packer,Lennart_Svensonn,2:501/2
0031,Rose,MS-DOS,Packer/mailer,Glen_Jackson,1:100/617
0032,Paragon,Amiga,Packer/mailer,Jon_Radoff,1:322/545
0033,BinkleyTerm/oMMM/ST,Atari_ST,Packer/mailer,Bill_Scull,1:363/112,,951209
0034,StarNet,Atari_ST,Mailer,Eric_Drewry,1:322/566
0035,ZzyZx,MS-DOS,Packer,Jason_Steck,1:124/424
0036,QEcho,MS-DOS,Packer,The_QuickBBS_Group,1:363/1701
0037,BOOM,MS-DOS,Packer,Andrew_Farmer,1:243/1
0038,PBBS,Amiga,Packer/mailer,Todd_Kover,1:261/1028
0039,TrapDoor,Amiga,Mailer,Maximilian_Hantsch,2:310/6
003A,Welmat,Amiga,Mailer,Russell_McOrmand,1:163/109
003B,NetGate,Unix-386,Packer,David_Nugent,3:632/348
003C,Odie,MS-DOS,Mailer,Matt_Farrenkopf,1:105/376
003D,Quick_Gimme,CPM-80/MS-DOS,Packer/mailer,Laeeth_Isaacs,2:254/18
003E,dbLink,MS-DOS,Packer/mailer,Chris_Irwin,1:18/68
003F,TosScan,MS-DOS,Packer,Joaquim_Homrighausen,2:270/17
0040,Beagle,MS-DOS,Mailer,Alexander_Holy,2:310/90
0041,Igor,MS-DOS,Mailer,Harry_Lee,1:124/4230
0042,TIMS,MS-DOS,Packer/mailer,Bit_Bucket_Software,1:104/501
0043,Phoenix,MS-DOS,Packer/mailer,International_Telecommunications,1:296/5,,930624
0044,FrontDoor_APX,MS-DOS,Packer/mailer,Joaquim_Homrighausen,2:270/17
0045,XRS,MS-DOS,Packer,Mike_Ratledge,1:372/888
0046,Juliet_Mail_System,Amiga,Packer,Gregory_Kritsch,1:163/109.30
0047,Jabberwocky,Macintosh,Packer,Eric_Larson,1:2605/620
0048,XST,MS-DOS,Packer,Wayne_Michaels,1:380/100
0049,MailStorm,Amiga,Packer,Russel_Miranda,1:268/106
004A,BIX-Mail,????,Mailer,Bob_Hartman,1:104/501
004B,IMAIL,MS-DOS,Packer,IMAIL_INC.,2:246/47
004C,FTNGate,MS-DOS,Packer,Jason_Steck,1:104/424
004D,RealMail,MS-DOS,Packer,Taine_Gilliam,1:372/42
004E,Lora-CBIS,MS-DOS,Mailer,Marco_Maccaferri,2:332/402
004F,TDCS,PDP-11,Packer/mailer,Terry_Ebdon,2:254/6
0050,InterMail,MS-DOS,Packer/mailer,Peter_Stewart,1:369/35
0051,RFD,MS-DOS,Packer,Doug_Belkofer,1:234/10
0052,Yuppie!,MS-DOS,Packer,Leo_Moll,2:242/2
0053,EMMA,MS-DOS,Packer,Johan_Zwiekhorst,2:292/100
0054,QBoxMail,QDOS,Packer/mailer,Jan_Bredenbeek,2:283/500
0055,Number_4,MS-DOS,Packer/mailer,Ola_Garstad,2:502/15
0056,Number_5,MS-DOS,Packer/mailer,Ola_Garstad,2:502/15
0057,GSBBS,MS-DOS,Packer,Michelangelo_Jones,1:260/244
0058,Merlin,MS-DOS,Packer/mailer,Mark_Lewis,2:258/25
0059,TPCS,MS-DOS,Packer,Mikael_Kjellstrom,2:201/211
005A,Raid,MS-DOS,Packer,George_Peace,1:270/101
005B,Outpost,MS-DOS,Packer/mailer,Mike_Dailor,????
005C,Nizze,MS-DOS,Packer,Tomas_Nielsen,2:205/202
005D,Armadillo,Macintosh,Packer,Erik_Sea,1:221/109
005E,rfmail,Unix,Packer/mailer,Per_Lindqvist,2:201/332
005F,Msgtoss,MS-DOS,Packer,Mike_Zakharoff,1:343/36
0060,InfoTex,MS-DOS,Packer/mailer,Jan_Spooren,2:292/852
0061,GEcho,MS-DOS,Packer,Gerard_van_der_Land,2:283/555,951209
0062,CDEhost,MS-DOS,Packer,Dennis_D'Annunzio,1:379/28
0063,Pktize,MS-DOS,Packer,Joaquim_Homrighausen,2:270/17
0064,PC-RAIN,MS-DOS,Packer/mailer,Ray_Hyder,1:272/40
0065,Truffle,MS-DOS/OS2,Mailer,Mike_Rissa,2:504/59
0066,Foozle,Amiga,Packer,Peer_Hasselmeyer,2:247/4
0067,White_Pointer,Macintosh,Packer/mailer,Alastair_Rakine,3:680/820
0068,GateWorks,MS-DOS,Packer,Jamie_Penner,1:153/1025
0069,Portal_of_Power,MS-DOS,Mailer,Soren_Ager,2:230/12
006A,MacWoof,Macintosh,Packer/mailer,Craig_Vaughan,1:109/342
006B,Mosaic,MS-DOS,Packer,Christopher_King,1:103/315
006C,TPBEcho,MS-DOS,Packer,Gerd_Qualmann,2:242/1
006D,HandyMail,MS-DOS,Packer/mailer,jim_nutt,1:114/30
006E,EchoSmith,MS-DOS,Packer,Noel_Crow,1:170/409
006F,FileHost,MS-DOS,Packer,Mark_Cole,2:252/186
0070,SFTS,MS-DOS,Packer,Bruce_Anderson,1:3402/6
0071,Benjamin,MS-DOS,Packer/mailer,Stefan_Graf,2:245/4.5436
0072,RiBBS,OS9_(COCO),Packer/mailer,Ron_Bihler,1:104/54
0073,MP,MS-DOS,Packer,Ivan_Leong,6:600/28
0074,Ping,MS-DOS,Packer,David_Nugent,3:632/348
0075,Door2Europe,MS-DOS,Packer/mailer,Michaela_Schoebel,2:247/14
0076,SWIFT,MS-DOS,Packer/mailer,Hanno_van_der_Maas,2:500/2
0077,WMAIL,MS-DOS,Packer,Silvan_Calarco,2:334/100.2
0078,RATS,MS-DOS,Packer,Jason_DeCaro,1:260/205
0079,Harry_the_Dirty_Dog,OS2,Mailer/packer,George_Edwards,3:632/340.7
007A,Maximus-CBCS,MS-DOS/OS2,Packer,Scott_Dudley,1:249/106
007B,SwifEcho,MS-DOS,Packer,Dana_Bell,1:3801/8
007C,GCChost,Amiga,Packer,Davide_Massarenti,2:332/505.3
007D,RPX-Mail,MS-DOS,Packer,Joerg_Wirtgen,2:241/4034
007E,Tosser,MS-DOS,Packer,Albert_Ng,6:700/185
007F,TCL,MS-DOS,Packer,Ulf_Hedlund,2:201/602
0080,MsgTrack,MS-DOS,Packer,Andrew_Farmer,1:243/1
0081,FMail,MS-DOS,Packer,Folkert_Wijnstra,2:282/310
0082,Scantoss,MS-DOS,Packer,Michael_Matter,2:243/44.3443
0083,Point_Manager,Amiga,Packer,Pino_Aliberti,2:335/602.2,,931012
0084,IMBINK,MS-DOS,Packer,Mike_Hartmann,2:246/48
0085,Simplex,MS-DOS/OS2,Packer,Chris_Laforet,1:152/401
0086,UMTP,MS-DOS,Packer,Byron_Copeland,1:272/26
0087,Indaba,MS-DOS,Packer,Pieter_Muller,5:7102/11
0088,Echomail_Engine,MS-DOS,Packer,Joe_Jared,1:103/200
0089,DragonMail,OS2,Packer,Patrick_O'Riva,1:143/37
008A,Prox,MS-DOS,Packer,Gerhard_Hoogterp,2:283/1.2
008B,Tick,MS-DOS/OS2,Packer,Barry_Geller,1:266/12
008C,RA-Echo,MS-DOS,Packer,Roger_Kirchhoff,2:245/4
008D,TrapToss,Amiga,Packer,Maximilian_Hantsch,2:310/6
008E,Babel,MS-DOS/OS2,Packer,Jorgen_Abrahamsen,2:230/100.9
008F,UMS,Amiga,Packer,Martin_Horneffer,2:242/7.9
0090,RWMail,MS-DOS,Packer,Remko_Westrik,2:285/309.5
0091,WildMail,MS-DOS,Packer,Derek_Koopowitz,1:161/502
0092,AlMAIL,MS-DOS,Packer,Alan_Leung,1:348/207
0093,XCS,MS-DOS,Packer,Rudi_Kusters,2:512/34.4
0094,Fone-Link,MS-DOS,Packer/mailer,Chris_Sloyan,1:269/602
0095,Dogfight,MS-DOS,Packer,Chris_Tyson,2:256/36
0096,Ascan,MS-DOS,Packer,Arjen_van_Loon,2:281/1.397
0097,FastMail,MS-DOS,Packer,Jan_Berends,2:282/5
0098,DoorMan,MS-DOS,Mailer,Christopher_Dean,1:105/70
0099,PhaedoZap,Atari_ST,Packer,Jeff_Mitchell,1:229/422
009A,SCREAM,MS-DOS,Packer/mailer,Jem_Miller,1:147/33
009B,MoonMail,MS-DOS,Packer/mailer,Hasse_Wigdahl,2:206/101
009C,Backdoor,Sinclair_QL,Packer,Erik_Slagter,2:283/500.3
009D,MailLink,Archimedes,Packer/mailer,Jan-Jaap_v._d._Geer,2:500/133.1138
009E,Mail_Manager,MS-DOS,Packer,Andreas_Brodowski,2:241/4006
009F,Black_Star,Xenix_386,Packer/mailer,Jac_Kersing,2:283/333
00A0,Bermuda,Atari_ST/MS-DOS,Packer,Jac_Kersing,2:283/333
00A1,PT,MS-DOS,Packer/mailer,Jerry_Andrew,1:109/426
00A2,UltiMail,MS-DOS,Mailer,Brett_Floren,1:363/1000
00A3,GMD,MS-DOS,Packer,John_Souvestre,1:396/1
00A4,FreeMail,MS-DOS,Packer,Chad_Nelson,1:109/536
00A5,Meliora,MS-DOS,Packer,Erik_van_Riper,1:107/230
00A6,Foodo,CPM-80,Packer/mailer,Ron_Murray,3:690/640.7
00A7,MSBBS,CPM-80,Packer,Marc_Newman,1:106/601
00A8,Boston_BBS,MS-DOS,Packer/mailer,Tom_Bradford,1:101/625
00A9,XenoMail,MS-DOS,Packer/mailer,Noah_Wood,1:284/14
00AA,XenoLink,Amiga,Packer/mailer,Jonathan_Forbes,1:250/642
00AB,ObjectMatrix,MS-DOS,Packer,Roberto_Ceccarelli,2:332/305.1
00AC,Milquetoast,Win3/MS-DOS,Mailer,Vince_Perriello,1:343/491
00AD,PipBase,MS-DOS,Packer,Roberto_Piola,2:334/306
00AE,EzyMail,MS-DOS,Packer,Peter_Davies,3:636/204
00AF,FastEcho,MS-DOS,Packer,Tobias_Burchhardt,2:245/39
00B0,IOS,Atari_ST/TT,Packer,Rinaldo_Visscher,2:280/3.1
00B1,Communique,MS-DOS,Packer,Ian_Harris,3:620/251
00B2,PointMail,MS-DOS,Packer,Michele_Clinco,2:331/302.11
00B3,Harvey's_Robot,MS-DOS,Packer,Harvey_Parisien,1:249/114
00B4,2daPoint,MS-DOS,Packer,Ron_Pritchett,1:376/74
00B5,CommLink,MS-DOS,Mailer,Steve_Shapiro,1:382/35
00B6,fronttoss,MS-DOS,Packer,Dirk_Astrath,2:241/5603
00B7,SysopPoint,MS-DOS,Packer,Rudolf_Heeb,2:243/44
00B8,PTMAIL,MS-DOS,Packer,Arturo_Krogulski,2:341/27.7
00B9,MHS,MS-DOS/OS2/WINNT,Packer/mailer,Matthias_Hertzog,2:301/402,,940310
00BA,DLGMail,Amiga,Packer,Steve_Lewis,1:114/52
00BB,GatePrep,MS-DOS,Packer,Andrew_Allen,1:382/92
00BC,Spoint,MS-DOS,Packer,Conrad_Thompson,1:130/29.106
00BD,TurboMail,MS-DOS,Packer,B._J._Weschke,1:2606/403
00BE,FXMAIL,MS-DOS,Packer,Kenneth_Roach,1:208/401
00BF,NextBBS,MS-DOS,Packer/mailer,Tomas_Hood,1:352/777
00C0,EchoToss,MS-DOS,Packer,Mikel_Beck,1:107/218
00C1,SilverBox,Amiga,Packer,David_Lebel,1:240/516
00C2,MBMail,MS-DOS,Packer,Ruud_Uphoff,2:500/116.1928
00C3,SkyFreq,Amiga,Packer,Luca_Spada,2:331/106
00C4,ProMailer,Amiga,Mailer,Ivan_Pintori,2:335/311.21
00C5,Mega_Mail,MS-DOS,Packer/mailer,Mirko_Mucko,2:242/94
00C6,YaBom,MS-DOS,Packer,Berin_Lautenbach,3:620/248
00C7,TachEcho,MS-DOS,Packer,Tom_Zacios,1:107/376
00C8,XAP,MS-DOS,Packer,Jeroen_Smulders,2:512/1.8
00C9,EZMAIL,MS-DOS,Packer,Torben_Paving,2:234/41
00CA,Arc-Binkley,Archimedes,Mailer,Geoff_Riley,2:250/208
00CB,Roser,MS-DOS,Packer,Chan_Kafai,6:700/158
00CC,UU2,MS-DOS,Packer,Dmitri_Zavalishin,2:5020/32
00CD,NMS,MS-DOS,Packer/mailer,Michiel_de.Bruijn,2:285/505.2
00CE,BBCSCAN,Archimedes,Packer/mailer,E._G._Snel,2:512/222.17
00CF,XBBS,MS-DOS,Packer,Mark_Kimes,1:380/16
00D0,LoTek_Vzrul,Packer/mailer,Kevin_Gates,gates@sasknet.sk.ca,,951229
00D1,Private_Point_Project,MS-DOS,Packer,Oliver_von_Bueren,2:301/701
00D2,NoSnail,MS-DOS,Packer,Eddie_Rowe,1:19/124
00D3,SmlNet,MS-DOS,Packer,Steve_T._Gove,1:106/6
00D4,STIR,MS-DOS,Packer,Paul_Martin,2:250/107.3
00D5,RiscBBS,Archimedes,Packer,Carl_Declerck,2:292/500.10
00D6,Hercules,Amiga,Packer/mailer,Andrew_Gray,1:231/590
00D7,AMPRGATE,MS-DOS,Packer/mailer,Mike_Bilow,1:323/120.1
00D8,BinkEMSI,MS-DOS,Mailer,Tobias_Burchhardt,2:245/39
00D9,EditMsg,MS-DOS,Packer,G._K._Pace,1:374/26
00DA,Roof,Amiga,Packer,Robert_Williamson,1:167/104
00DB,QwkPkt,MS-DOS,Packer,Ross_West,1:250/412
00DC,MARISCAN,MS-DOS,Packer,Mario_Elkati,2:341/14.9
00DD,NewsFlash,MS-DOS,Packer,Chris_Lueders,2:241/5306
00DE,Paradise,MS-DOS,Packer/mailer,Kenneth_Wall,1:300/5
00DF,DogMatic-ACB,N/A,Packer/mailer,Martin_Allard,2:245/48
00E0,T-Mail,MS-DOS,Packer/mailer,Andy_Elkin,2:5030/15
00E1,JetMail,Atari_ST/STE/TT,Packer,Daniel_Roesen,2:243/93.8
00E2,MainDoor,MS-DOS,Packer/mailer,Francisco_Sedano,2:341/20
00E3,Starnet_Products,MS-DOS/OS2,Mailer/Packer,Starnet_Software_Development,1:102/925,,951209
00E4,BMB,Amiga,Packer,Dentato_Remo,2:335/311.33
00E5,BNP,MS-DOS,Packer,Nathan_Moschkin,1:109/427
00E6,MailMaster,MS-DOS,Packer/mailer,Gary_Murphy,1:130/85
00E7,Mail_Manager_+Plus+,MS-DOS,Packer,Chip_Morrow,1:226/1240
00E8,BloufGate,Atari_ST/Unix,Packer,Vincent_Pomey,2:320/100.2
00E9,CrossPoint,MS-DOS,Packer/mailer,Peter_Mandrella,2:2454/97.80,920713,960601
00EA,DeltaEcho,MS-DOS,Packer,Mikael_Staldal,2:201/337
00EB,ALLFIX,MS-DOS,Packer,Harald_Harms,2:512/145
00EC,NetWay,Archimedes,Mailer,Steve_Haslam,2:250/116.3
00ED,MARSmail,Atari_ST,Packer,Folkert_val_Heusden,2:285/750.2,,940122
00EE,ITRACK,MS-DOS,Packer,Frank_Prade,2:246/55.1
00EF,GateUtil,MS-DOS,Packer,Michael_Skurka,1:397/2.1
00F0,Bert,MS-DOS,Packer/mailer,Arnim_Wiezer,2:241/2104.9
00F1,Techno,MS-DOS,Packer,Patrik_Holmsten,2:203/133
00F2,AutoMail,MS-DOS,Packer,Mats_Wallin,2:201/239
00F3,April,Amiga,Packer,Nick_de_Jong,2:282/309.3
00F4,Amanda,MS-DOS,Packer,David_Douthitt,1:121/99.14
00F5,NmFwd,MS-DOS,Packer,Alberto_Pasquale,2:332/504
00F6,FileScan,MS-DOS,Packer,Matthias_Duesterhoeft,2:241/4512.2
00F7,FredMail,MS-DOS,Packer,Michael_Butler,3:712/515
00F8,TP_Kom,MS-DOS,Packer/mailer,Per_Sten,2:201/124
00F9,FidoZerb,MS-DOS,Packer,Ulrich_Schlechte,2:241/3410.12
00FA,!!MessageBase,MS-DOS,Packer/mailer,Holger_Lembke,2:240/500.20
00FB,EMFido,Amiga,Packer,Gary_Glendown,2:249/3.999
00FC,GS-Toss,MS-DOS,Packer,Marco_Bungalski,2:241/2021
00FD,QWKDoor,Atari_ST,Packer,Christian_Limpach,2:270/20.1
00FE,No_product_id_allocated,Any,Packer,No_Author,3:3/20
00FF,16-bit_product_id,Any,Packer/Mailer,No_Author,3:3/20

  C.  16-bit product codes
  ------------------------

0100,Reserved,None,None,No_Author,3:3/20,951209
0101,The_Brake!,Mailer,John_Gladkih,2:5051/16,951209
0102,Zeus_BBS,Amiga,Mailer,Alex_May,2:441/58.0,951209
0103,XenoPhobe-Mailer,Msdos/Windows/OS2/Linux,Mailer,Peter_Kling,1:374/969.0,951209
0104,None,None,None,None,0:0/0,
0105,Terminate,Msdos/Os2/Windows,Mailer/Packer,SerWiz_Comm_&_Bo_Bendtsen,2:254/261,951209
0106,TeleMail,Msdos,Mailer/Packer,Juergen_Weigelt,2:2453/900,951209
0107,CMBBS,Msdos/Os2,Mailer/Packer,Christof_Engel,2:2490/5110,951209
0108,Shuttle,Windows,Mailer/PAcker,MCH_Development_&_Marvin_Hart,1:106/500,951209
0109,Quater,Amiga,Mailer,Felice_Murolo,2:335/206,951209
010A,Windo,Windows,Mailer,Alan_Chavis,1:147/55,951209
010B,Xenia,Msdos/Os2,Mailer,Arjen_Lentz,2:283/512,960601
010C,GMS,AmigaOS,Mailer,Mirko_Viviani,2:331/213,960601
010D,HNET,Msdos,Pedro_Jaramillo,1:102/160,960601
010E,Shotgun_Professional,Msdos,Brent_Shellenberg,1:140/146,960621
010F,SLIPgate,Msdos,Kieran_Morrissey,3:634/376,960723

  ****************************************************************************
   See FTA-1003.TXT for names of the FTSC Administrator and Standing Members
  ****************************************************************************
